materia_clase/Conceptos/Detalles_de_Temporizacion/NOR_Inercial_0.vcd
$date
	Sun Mar 13 12:36:28 2011
$end
$version
	Icarus Verilog
$end
$timescale
	100ps
$end
$scope module BancoPruebas $end
$var wire 1 ! Blk $end
$var wire 1 " BlkSn $end
$var wire 1 # Pr $end
$var wire 1 $ PrAs $end
$var wire 1 % PrBf $end
$var wire 1 & nBlk $end
$var wire 1 ' nBlkSn $end
$var wire 1 ( qAs $end
$var wire 1 ) qBlk $end
$var wire 1 * qBlkSn $end
$var wire 1 + qBoole $end
$var wire 1 , qPrBuf $end
$var wire 1 - qPrim $end
$var wire 1 . qPrim2 $end
$var wire 1 / qUdp $end
$var wire 1 0 qnBlk $end
$var wire 1 1 qnBlkSn $end
$var wire 1 2 r $end
$var wire 1 3 s $end
$var wire 1 4 udp $end
$scope module circ $end
$var wire 1 ! Blk $end
$var wire 1 " BlkSn $end
$var wire 1 # Pr $end
$var wire 1 $ PrAs $end
$var wire 1 % PrBf $end
$var wire 1 & nBlk $end
$var wire 1 ' nBlkSn $end
$var wire 1 5 pr_risefall $end
$var wire 1 ( qAs $end
$var wire 1 ) qBlk $end
$var wire 1 * qBlkSn $end
$var wire 1 + qBoole $end
$var wire 1 , qPrBuf $end
$var wire 1 - qPrim $end
$var wire 1 . qPrim2 $end
$var wire 1 / qUdp $end
$var wire 1 6 qbAs $end
$var wire 1 7 qbBlk $end
$var wire 1 8 qbBlkSn $end
$var wire 1 9 qbBoole $end
$var wire 1 : qbPrBuf $end
$var wire 1 ; qbPrim $end
$var wire 1 < qbPrim2 $end
$var wire 1 = qbUdp $end
$var wire 1 > qbnBlk $end
$var wire 1 ? qbnBlkSn $end
$var wire 1 0 qnBlk $end
$var wire 1 1 qnBlkSn $end
$var wire 1 2 r $end
$var wire 1 3 s $end
$var wire 1 4 udp $end
$scope module g1 $end
$var wire 1 2 a $end
$var wire 1 3 b $end
$var wire 1 # f $end
$upscope $end
$scope module g11 $end
$var wire 1 2 a $end
$var wire 1 3 b $end
$var wire 1 $ f $end
$upscope $end
$scope module g2 $end
$var wire 1 2 a $end
$var wire 1 3 b $end
$var wire 1 % f $end
$var wire 1 @ x $end
$upscope $end
$scope module g3 $end
$var wire 1 2 a $end
$var wire 1 3 b $end
$var reg 1 A f $end
$upscope $end
$scope module g31 $end
$var wire 1 2 a $end
$var wire 1 3 b $end
$var reg 1 B f $end
$upscope $end
$scope module g4 $end
$var wire 1 2 a $end
$var wire 1 3 b $end
$var reg 1 C f $end
$upscope $end
$scope module g41 $end
$var wire 1 2 a $end
$var wire 1 3 b $end
$var reg 1 D f $end
$upscope $end
$scope module g5 $end
$var wire 1 2 a $end
$var wire 1 3 b $end
$var wire 1 4 f $end
$upscope $end
$scope module g6 $end
$var wire 1 - q $end
$var wire 1 ; qb $end
$var wire 1 2 r $end
$var wire 1 3 s $end
$scope module c1 $end
$var wire 1 - a $end
$var wire 1 3 b $end
$var wire 1 ; f $end
$upscope $end
$scope module c2 $end
$var wire 1 ; a $end
$var wire 1 2 b $end
$var wire 1 - f $end
$upscope $end
$upscope $end
$scope module g62 $end
$var wire 1 . q $end
$var wire 1 < qb $end
$var wire 1 2 r $end
$var wire 1 3 s $end
$scope module c1 $end
$var wire 1 < a $end
$var wire 1 2 b $end
$var wire 1 . f $end
$upscope $end
$scope module c2 $end
$var wire 1 . a $end
$var wire 1 3 b $end
$var wire 1 < f $end
$upscope $end
$upscope $end
$scope module g7 $end
$var wire 1 , q $end
$var wire 1 : qb $end
$var wire 1 2 r $end
$var wire 1 3 s $end
$scope module c1 $end
$var wire 1 , a $end
$var wire 1 3 b $end
$var wire 1 : f $end
$var wire 1 E x $end
$upscope $end
$scope module c2 $end
$var wire 1 : a $end
$var wire 1 2 b $end
$var wire 1 , f $end
$var wire 1 F x $end
$upscope $end
$upscope $end
$scope module g8 $end
$var wire 1 ) q $end
$var wire 1 7 qb $end
$var wire 1 2 r $end
$var wire 1 3 s $end
$scope module c1 $end
$var wire 1 ) a $end
$var wire 1 3 b $end
$var reg 1 G f $end
$upscope $end
$scope module c2 $end
$var wire 1 7 a $end
$var wire 1 2 b $end
$var reg 1 H f $end
$upscope $end
$upscope $end
$scope module g81 $end
$var wire 1 * q $end
$var wire 1 8 qb $end
$var wire 1 2 r $end
$var wire 1 3 s $end
$scope module c1 $end
$var wire 1 * a $end
$var wire 1 3 b $end
$var reg 1 I f $end
$upscope $end
$scope module c2 $end
$var wire 1 8 a $end
$var wire 1 2 b $end
$var reg 1 J f $end
$upscope $end
$upscope $end
$scope module g9 $end
$var wire 1 0 q $end
$var wire 1 > qb $end
$var wire 1 2 r $end
$var wire 1 3 s $end
$scope module c1 $end
$var wire 1 0 a $end
$var wire 1 3 b $end
$var reg 1 K f $end
$upscope $end
$scope module c2 $end
$var wire 1 > a $end
$var wire 1 2 b $end
$var reg 1 L f $end
$upscope $end
$upscope $end
$scope module g91 $end
$var wire 1 1 q $end
$var wire 1 ? qb $end
$var wire 1 2 r $end
$var wire 1 3 s $end
$scope module c1 $end
$var wire 1 1 a $end
$var wire 1 3 b $end
$var reg 1 M f $end
$upscope $end
$scope module c2 $end
$var wire 1 ? a $end
$var wire 1 2 b $end
$var reg 1 N f $end
$upscope $end
$upscope $end
$scope module g10 $end
$var wire 1 / q $end
$var wire 1 = qb $end
$var wire 1 2 r $end
$var wire 1 3 s $end
$scope module c1 $end
$var wire 1 / a $end
$var wire 1 3 b $end
$var wire 1 = f $end
$upscope $end
$scope module c2 $end
$var wire 1 = a $end
$var wire 1 2 b $end
$var wire 1 / f $end
$upscope $end
$upscope $end
$scope module g20 $end
$var wire 1 ( q $end
$var wire 1 6 qb $end
$var wire 1 2 r $end
$var wire 1 3 s $end
$scope module c1 $end
$var wire 1 ( a $end
$var wire 1 3 b $end
$var wire 1 6 f $end
$upscope $end
$scope module c2 $end
$var wire 1 6 a $end
$var wire 1 2 b $end
$var wire 1 ( f $end
$upscope $end
$upscope $end
$scope module g30 $end
$var wire 1 O Y $end
$var wire 1 + q $end
$var wire 1 9 qb $end
$var wire 1 2 r $end
$var wire 1 3 s $end
$upscope $end
$upscope $end
$scope module tester $end
$var wire 1 ! Blk $end
$var wire 1 " BlkSn $end
$var wire 1 # Pr $end
$var wire 1 $ PrAs $end
$var wire 1 % PrBf $end
$var wire 1 & nBlk $end
$var wire 1 ' nBlkSn $end
$var wire 1 ( qAs $end
$var wire 1 ) qBlk $end
$var wire 1 * qBlkSn $end
$var wire 1 + qBoole $end
$var wire 1 , qPrBuf $end
$var wire 1 - qPrim $end
$var wire 1 . qPrim2 $end
$var wire 1 / qUdp $end
$var wire 1 0 qnBlk $end
$var wire 1 1 qnBlkSn $end
$var wire 1 4 udp $end
$var reg 1 P r $end
$var reg 1 Q s $end
$upscope $end
$upscope $end
$enddefinitions $end
#0
$dumpvars
xQ
xP
xO
xN
xM
xL
xK
xJ
xI
xH
xG
xF
xE
xD
xC
xB
xA
x@
x?
x>
z=
x<
x;
x:
x9
x8
x7
x6
x5
z4
x3
x2
x1
x0
z/
x.
x-
x,
x+
x*
x)
x(
x'
x&
x%
x$
x#
x"
x!
$end
#200
1@
0P
02
0Q
03
#220
1C
1&
1D
1'
1%
1$
14
1B
1"
1A
1!
1#
#234
15
#400
09
0E
0@
1Q
13
#420
0K
0>
0C
0&
0M
0?
0D
0'
1+
1F
0O
06
0:
0%
0$
0=
0I
08
0G
07
0<
0;
04
0A
0!
0B
0"
0#
#422
05
#440
1L
10
1N
11
1(
1,
1/
1J
1*
1H
1)
1.
1-
#600
1@
0Q
03
#620
1C
1&
1D
1'
1%
1$
14
1B
1"
1A
1!
1#
#634
15
#800
19
0+
0F
0@
1P
12
#820
0L
00
0C
0&
0N
01
0D
0'
1E
1O
0(
0,
0%
0$
0/
0J
0*
0H
0)
0.
0-
04
0A
0!
0B
0"
0#
#822
05
#840
1K
1>
1M
1?
16
1:
1=
1I
18
1G
17
1<
1;
#1000
1@
0P
02
#1020
1C
1&
1D
1'
1%
1$
14
1B
1"
1A
1!
1#
#1034
15
#1200
09
0E
0@
1P
12
1Q
13
#1220
0K
0>
0C
0&
0M
0?
0D
0'
0O
06
0:
0%
0$
0=
0I
08
0G
07
0<
0;
04
0A
0!
0B
0"
0#
#1222
05
#1400
1+
09
1F
1E
1@
0P
02
0Q
03
#1420
1L
10
1K
1>
1C
1&
1N
11
1M
1?
1D
1'
0E
0F
1(
1,
16
1:
1%
1$
1/
1J
1*
1.
1-
14
1=
1I
18
1G
17
1<
1;
1B
1"
1A
1!
1#
#1434
15
#1440
0K
0>
0L
00
0M
0?
0N
01
1F
1E
06
0:
0(
0,
0=
0I
08
0<
0;
0/
0.
0-
#1460
1L
10
1K
1>
1N
11
1M
1?
0E
0F
1(
1,
16
1:
1/
1.
1-
1=
1<
1;
#1480
0K
0>
0L
00
0M
0?
0N
01
1F
1E
06
0:
0(
0,
0=
0<
0;
0/
0.
0-
#1500
1L
10
1K
1>
1N
11
1M
1?
0E
0F
1(
1,
16
1:
1/
1.
1-
1=
1<
1;
#1520
0K
0>
0L
00
0M
0?
0N
01
1F
1E
06
0:
0(
0,
0=
0<
0;
0/
0.
0-
#1540
1L
10
1K
1>
1N
11
1M
1?
0E
0F
1(
1,
16
1:
1/
1.
1-
1=
1<
1;
#1560
0K
0>
0L
00
0M
0?
0N
01
1F
1E
06
0:
0(
0,
0=
0<
0;
0/
0.
0-
#1580
1L
10
1K
1>
1N
11
1M
1?
0E
0F
1(
1,
16
1:
1/
1.
1-
1=
1<
1;
#1600
0K
0>
0L
00
0M
0?
0N
01
19
0+
1E
0@
06
0:
0(
0,
0=
0<
0;
0/
0.
0-
1P
12
#1620
1K
1>
0C
0&
1M
1?
0D
0'
1O
16
1:
0%
0$
1=
1<
1;
0J
0*
04
0A
0!
0B
0"
0#
#1622
05
#1640
1I
18
#1800
1@
0P
02
#1820
1C
1&
1D
1'
1%
1$
14
1B
1"
1A
1!
1#
#1834
15
#2000
09
0E
0@
1Q
13
#2010
19
1E
1@
0Q
03
#2020
0M
0?
0D
0'
0I
08
0B
0"
#2030
1M
1?
1D
1'
#2040
1N
11
1J
1*
#2050
0N
01
#2060
0M
0?
#2070
1M
1?
#2080
1N
11
#2090
0N
01
#2100
0M
0?
#2110
1M
1?
#2120
1N
11
#2130
0N
01
#2140
0M
0?
#2150
1M
1?
#2160
1N
11
#2170
0N
01
#2180
0M
0?
#2190
1M
1?
#2200
1N
11
#2210
0N
01
0@
1P
12
#2220
0M
0?
#2230
0C
0&
1M
1?
0D
0'
0%
0$
0J
0*
04
0A
0!
0#
#2232
05
#2250
1I
18
#2410
1@
0P
02
#2430
1C
1&
1D
1'
1%
1$
14
1A
1!
1B
1"
1#
#2444
15
#2610
09
0E
0@
1Q
13
#2630
0M
0?
0D
0'
1+
09
1F
1E
1@
0O
06
0:
0%
0$
0=
0I
08
0<
0;
04
0B
0"
0#
0Q
03
#2650
1N
11
1M
1?
1D
1'
0E
0F
1(
1,
16
1:
1%
1$
1/
1J
1*
1.
1-
1=
1<
1;
14
1#
#2670
0M
0?
0N
01
1F
1E
06
0:
0(
0,
0=
0<
0;
0/
0.
0-
#2690
1N
11
1M
1?
0E
0F
1(
1,
16
1:
1/
1.
1-
1=
1<
1;
#2710
0M
0?
0N
01
1F
1E
06
0:
0(
0,
0=
0<
0;
0/
0.
0-
#2730
1N
11
1M
1?
0E
0F
1(
1,
16
1:
1/
1.
1-
1=
1<
1;
#2750
0M
0?
0N
01
1F
1E
06
0:
0(
0,
0=
0<
0;
0/
0.
0-
#2770
1N
11
1M
1?
0E
0F
1(
1,
16
1:
1/
1.
1-
1=
1<
1;
#2790
0M
0?
0N
01
1F
1E
06
0:
0(
0,
0=
0<
0;
0/
0.
0-
#2810
1N
11
1M
1?
0E
0F
1(
1,
16
1:
1/
1.
1-
1=
1<
1;
#2830
0M
0?
0N
01
19
0+
1E
0@
06
0:
0(
0,
0=
0<
0;
0/
0.
0-
1P
12
#2850
0C
0&
1M
1?
0D
0'
1O
16
1:
0%
0$
1=
1<
1;
0J
0*
04
0A
0!
0#
#2852
05
#2870
1I
18
#3030
1@
0P
02
#3050
1C
1&
1D
1'
1%
1$
14
1B
1"
1A
1!
1#
#3064
15
#3230
09
0E
0@
1Q
13
#3250
0K
0>
0C
0&
0M
0?
0D
0'
1+
1F
0O
06
0:
0%
0$
0=
0I
08
0G
07
0<
0;
04
0A
0!
0B
0"
0#
#3252
05
#3260
1E
1@
0Q
03
#3270
1L
10
1N
11
0E
1(
1,
1/
1J
1*
1H
1)
1.
1-
#3280
1C
1&
1M
1?
1D
1'
1%
1$
1I
18
14
1B
1"
1A
1!
1#
#3290
0M
0?
#3294
15
#3300
0N
01
0J
0*
#3310
1N
11
#3320
1M
1?
#3330
0M
0?
#3340
0N
01
#3350
1N
11
#3360
1M
1?
#3370
0M
0?
#3380
0N
01
#3390
1N
11
#3400
1M
1?
#3410
0M
0?
#3420
0N
01
#3430
1N
11
#3440
1M
1?
#3450
0M
0?
#3460
0N
01
19
0+
0F
0@
1P
12
#3470
1N
11
#3480
0L
00
0C
0&
1M
1?
0N
01
0D
0'
1E
1O
0(
0,
0%
0$
0/
0H
0)
0.
0-
04
0A
0!
0B
0"
0#
#3482
05
#3490
0M
0?
#3500
1K
1>
1M
1?
16
1:
1=
1G
17
1<
1;
