materia_clase/Conceptos/Memorias/ddr_sdram.vcd
$date
	Fri Jul 14 03:11:57 2006
$end
$version
	Icarus Verilog
$end
$timescale
	1ps
$end
$scope module tb $end
$var wire 8 ! BL[7:0] $end
$var wire 1 " BO $end
$var wire 3 # CL[2:0] $end
$var wire 2 $ DM[1:0] $end
$var wire 16 % DQ[15:0] $end
$var wire 2 & DQS[1:0] $end
$var wire 4 ' RL[3:0] $end
$var wire 4 ( WL[3:0] $end
$var wire 16 ) dq_fifo_W0[15:0] $end
$var wire 16 * dq_fifo_W1[15:0] $end
$var wire 32 + dq_in[31:0] $end
$var wire 4 , dqs_in[3:0] $end
$var reg 13 - ADDR[12:0] $end
$var reg 2 . BA[1:0] $end
$var reg 1 / CAS_N $end
$var reg 1 0 CKE $end
$var reg 1 1 CLK $end
$var reg 1 2 CLK_N $end
$var reg 1 3 CS_N $end
$var reg 1 4 RAS_N $end
$var reg 1 5 WE_N $end
$var reg 2 6 dm_out[1:0] $end
$var reg 1 7 dq_en $end
$var reg 32 8 dq_in_neg[31:0] $end
$var reg 32 9 dq_in_pos[31:0] $end
$var reg 16 : dq_out[15:0] $end
$var reg 1 ; dqs_en $end
$var reg 2 < dqs_out[1:0] $end
$var reg 13 = ext_mode_reg[12:0] $end
$var reg 13 > mode_reg[12:0] $end
$scope module sdramddr $end
$var wire 1 ? Active_enable $end
$var wire 13 @ Addr[12:0] $end
$var wire 1 A Aref_enable $end
$var wire 2 B Ba[1:0] $end
$var wire 1 C Burst_term $end
$var wire 1 / Cas_n $end
$var wire 1 0 Cke $end
$var wire 1 1 Clk $end
$var wire 1 2 Clk_n $end
$var wire 1 3 Cs_n $end
$var wire 2 D Dm[1:0] $end
$var wire 2 E Dm_in[1:0] $end
$var wire 16 F Dq[15:0] $end
$var wire 16 G Dq_in[15:0] $end
$var wire 2 H Dqs[1:0] $end
$var wire 2 I Dqs_in[1:0] $end
$var wire 1 J Ext_mode_enable $end
$var wire 1 K Mode_reg_enable $end
$var wire 1 L Prech_enable $end
$var wire 1 4 Ras_n $end
$var wire 1 M Read_enable $end
$var wire 1 5 We_n $end
$var wire 1 N Write_enable $end
$var wire 4 O burst_length[3:0] $end
$var wire 3 P cas_latency_x2[2:0] $end
$var wire 1 Q wdqs_valid $end
$var reg 1 R Act_b0 $end
$var reg 1 S Act_b1 $end
$var reg 1 T Act_b2 $end
$var reg 1 U Act_b3 $end
$var reg 13 V B0_row_addr[12:0] $end
$var reg 13 W B1_row_addr[12:0] $end
$var reg 13 X B2_row_addr[12:0] $end
$var reg 13 Y B3_row_addr[12:0] $end
$var reg 2 Z Bank_addr[1:0] $end
$var reg 10 [ Burst_counter[9:0] $end
$var reg 1 \ CkeZ $end
$var reg 10 ] Cols_addr[9:0] $end
$var reg 10 ^ Cols_brst[9:0] $end
$var reg 10 _ Cols_temp[9:0] $end
$var reg 32 ` DLL_count[31:0] $end
$var reg 1 a DLL_done $end
$var reg 1 b DLL_enable $end
$var reg 1 c DLL_reset $end
$var reg 1 d Data_in_enable $end
$var reg 1 e Data_out_enable $end
$var reg 16 f Dq_buf[15:0] $end
$var reg 16 g Dq_out[15:0] $end
$var reg 1 h Dqs_int $end
$var reg 2 i Dqs_out[1:0] $end
$var reg 64 j MRD_chk[63:0] $end
$var reg 13 k Mode_reg[12:0] $end
$var reg 1 l Pc_b0 $end
$var reg 1 m Pc_b1 $end
$var reg 1 n Pc_b2 $end
$var reg 1 o Pc_b3 $end
$var reg 32 p Prech_count[31:0] $end
$var reg 2 q Prev_bank[1:0] $end
$var reg 64 r RAP_chk0[63:0] $end
$var reg 64 s RAP_chk1[63:0] $end
$var reg 64 t RAP_chk2[63:0] $end
$var reg 64 u RAP_chk3[63:0] $end
$var reg 64 v RAS_chk0[63:0] $end
$var reg 64 w RAS_chk1[63:0] $end
$var reg 64 x RAS_chk2[63:0] $end
$var reg 64 y RAS_chk3[63:0] $end
$var reg 64 z RCD_chk0[63:0] $end
$var reg 64 { RCD_chk1[63:0] $end
$var reg 64 | RCD_chk2[63:0] $end
$var reg 64 } RCD_chk3[63:0] $end
$var reg 64 ~ RC_chk0[63:0] $end
$var reg 64 !" RC_chk1[63:0] $end
$var reg 64 "" RC_chk2[63:0] $end
$var reg 64 #" RC_chk3[63:0] $end
$var reg 64 $" RFC_chk[63:0] $end
$var reg 64 %" RP_chk0[63:0] $end
$var reg 64 &" RP_chk1[63:0] $end
$var reg 64 '" RP_chk2[63:0] $end
$var reg 64 (" RP_chk3[63:0] $end
$var reg 64 )" RRD_chk[63:0] $end
$var reg 13 *" Rows_addr[12:0] $end
$var reg 1 +" Sys_clk $end
$var reg 64 ," WR_chk0[63:0] $end
$var reg 64 -" WR_chk1[63:0] $end
$var reg 64 ." WR_chk2[63:0] $end
$var reg 64 /" WR_chk3[63:0] $end
$var reg 32 0" aref_count[31:0] $end
$var reg 2 1" dm_fall[1:0] $end
$var reg 4 2" dm_pair[3:0] $end
$var reg 2 3" dm_rise[1:0] $end
$var reg 16 4" dq_fall[15:0] $end
$var reg 16 5" dq_rise[15:0] $end
$var reg 2 6" expect_neg_dqs[1:0] $end
$var reg 2 7" expect_pos_dqs[1:0] $end
$var reg 32 8" i[31:0] $end
$var reg 11 9" mem_used[10:0] $end
$var reg 1 :" power_up_done $end
$var reg 4 ;" read_precharge_truncation[3:0] $end
$scope task Auto_Precharge_Calculation $end
$upscope $end
$scope task Burst_Decode $end
$upscope $end
$scope task Burst_Terminate_Pipeline $end
$upscope $end
$scope task Control_Logic $end
$upscope $end
$scope task DLL_Counter $end
$upscope $end
$scope task Dq_Dqs_Drivers $end
$upscope $end
$scope task Manual_Precharge_Pipeline $end
$upscope $end
$scope task Write_FIFO_DM_Mask_Logic $end
$upscope $end
$scope task check_neg_dqs $end
$upscope $end
$scope task check_pos_dqs $end
$upscope $end
$scope task read_mem $end
$var reg 25 <" addr[24:0] $end
$var reg 16 =" data[15:0] $end
$var reg 11 >" i[10:0] $end
$scope begin loop $end
$upscope $end
$upscope $end
$scope task write_mem $end
$var reg 25 ?" addr[24:0] $end
$var reg 16 @" data[15:0] $end
$var reg 11 A" i[10:0] $end
$scope begin loop $end
$upscope $end
$upscope $end
$upscope $end
$scope begin data_verify $end
$var reg 1 B" a $end
$var reg 16 C" bit_mask[15:0] $end
$var reg 2 D" data_mask[1:0] $end
$var reg 32 E" i[31:0] $end
$upscope $end
$scope begin test $end
$upscope $end
$scope task activate $end
$var reg 2 F" ba[1:0] $end
$var reg 13 G" row[12:0] $end
$upscope $end
$scope task burst_term $end
$upscope $end
$scope task deselect $end
$var reg 32 H" count[31:0] $end
$upscope $end
$scope task dqs_receiver $end
$var reg 32 I" i[31:0] $end
$upscope $end
$scope task load_mode $end
$var reg 13 J" addr[12:0] $end
$var reg 2 K" ba[1:0] $end
$upscope $end
$scope task nop $end
$var reg 32 L" count[31:0] $end
$upscope $end
$scope task power_down $end
$var reg 32 M" count[31:0] $end
$upscope $end
$scope task power_up $end
$upscope $end
$scope task precharge $end
$var reg 1 N" ap $end
$var reg 2 O" ba[1:0] $end
$upscope $end
$scope task read $end
$var reg 1 P" ap $end
$var reg 2 Q" ba[1:0] $end
$var reg 10 R" col[9:0] $end
$upscope $end
$scope task read_verify $end
$var reg 1 S" ap $end
$var reg 2 T" ba[1:0] $end
$var reg 3 U" brst_col[2:0] $end
$var reg 10 V" col[9:0] $end
$var reg 32 W" dm[31:0] $end
$var reg 256 X" dq[255:0] $end
$var reg 32 Y" i[31:0] $end
$upscope $end
$scope task refresh $end
$upscope $end
$scope task self_refresh $end
$var reg 32 Z" count[31:0] $end
$upscope $end
$scope task write $end
$var reg 1 [" ap $end
$var reg 2 \" ba[1:0] $end
$var reg 10 ]" col[9:0] $end
$var reg 32 ^" dm[31:0] $end
$var reg 256 _" dq[255:0] $end
$var reg 32 `" i[31:0] $end
$upscope $end
$upscope $end
$enddefinitions $end
#0
$dumpvars
bx `"
bx _"
bx ^"
bx ]"
bx \"
x["
bx Z"
bx Y"
bx X"
bx W"
bx V"
bx U"
bx T"
xS"
bx R"
bx Q"
xP"
bx O"
xN"
bx M"
bx L"
bx K"
bx J"
bx I"
bx H"
bx G"
bx F"
b10 E"
bx D"
bx C"
0B"
bx A"
bx @"
bx ?"
bx >"
bx ="
bx <"
bx ;"
0:"
b0 9"
bx 8"
bx 7"
bx 6"
bx 5"
bx 4"
bx 3"
bx 2"
bx 1"
b0 0"
b0 /"
b0 ."
b0 -"
b0 ,"
0+"
bx *"
b0 )"
b0 ("
b0 '"
b0 &"
b0 %"
b0 $"
b0 #"
b0 ""
b0 !"
b0 ~
b0 }
b0 |
b0 {
b0 z
b0 y
b0 x
b0 w
b0 v
b0 u
b0 t
b0 s
b0 r
bx q
b0 p
0o
0n
0m
0l
bx k
b0 j
bz i
0h
bz g
bx f
0e
0d
0c
0b
0a
b0 `
bx _
bx ^
bx ]
0\
bx [
bx Z
bx Y
bx X
bx W
bx V
1U
1T
1S
1R
xQ
bx P
bx O
xN
xM
xL
xK
xJ
bz I
bz H
bz G
bz F
bz E
bz D
xC
bz B
xA
bz @
x?
bx >
bx =
bx <
0;
bx :
bx 9
bx 8
07
bx 6
z5
z4
z3
02
11
00
z/
bz .
bz -
b0zz ,
b0zzzzzzzzzzzzzzzz +
bx *
bx )
b1 (
b0xxx '
bz &
bz %
bz $
bx #
x"
bx !
$end
#500
b1 I"
#501
1B"
#3750
0B"
b10 E"
12
01
#4251
1B"
#7500
0B"
b10 E"
02
11
#8001
1B"
#11250
0B"
b10 E"
12
01
#11751
1B"
#15000
0B"
b10 E"
02
11
#15501
1B"
#18750
0B"
b10 E"
12
01
#19251
1B"
#22500
0B"
b10 E"
02
11
#23001
1B"
#26250
0B"
b10 E"
12
01
#26751
1B"
#30000
0B"
b10 E"
02
11
#30501
1B"
#33750
0B"
b10 E"
12
01
#34251
1B"
#37500
0B"
b10 E"
02
11
#38001
1B"
#41250
0B"
b10 E"
12
01
#41751
1B"
#45000
0B"
b10 E"
02
11
#45501
1B"
#48750
0B"
b10 E"
12
01
#49251
1B"
#52500
0B"
b10 E"
02
11
#53001
1B"
#56250
0B"
b10 E"
12
01
#56751
1B"
#60000
0B"
b10 E"
02
11
#60501
1B"
#63750
0B"
b10 E"
12
01
#64251
1B"
#67500
0B"
b10 E"
02
11
#68001
1B"
#71250
0B"
b10 E"
12
01
#71751
1B"
#75000
0B"
b10 E"
02
11
#75501
1B"
#78750
0B"
0J
0K
0?
0A
0M
0C
0L
0N
b10 E"
15
1/
14
03
b110110 L"
10
12
01
#79251
1B"
#82500
0B"
b10 E"
1\
02
11
#83001
1B"
#86250
0B"
b10 E"
12
01
#86751
1B"
#90000
0B"
b0 6"
b0 7"
b10 E"
1+"
02
11
#90501
1B"
#93750
0B"
b10 E"
0+"
12
01
#94251
1B"
#97500
0B"
0Q
b10 E"
1+"
02
11
#98001
1B"
#101250
0B"
b10 E"
0+"
12
01
#101751
1B"
#105000
0B"
b10 E"
1+"
02
11
#105501
1B"
#108750
0B"
b10 E"
0+"
12
01
#109251
1B"
#112500
0B"
b10 E"
1+"
02
11
#113001
1B"
#116250
0B"
b10 E"
0+"
12
01
#116751
1B"
#120000
0B"
b10 E"
1+"
02
11
#120501
1B"
#123750
0B"
b10 E"
0+"
12
01
#124251
1B"
#127500
0B"
b10 E"
1+"
02
11
#128001
1B"
#131250
0B"
b10 E"
0+"
12
01
#131751
1B"
#135000
0B"
b10 E"
1+"
02
11
#135501
1B"
#138750
0B"
b10 E"
0+"
12
01
#139251
1B"
#142500
0B"
b10 E"
1+"
02
11
#143001
1B"
#146250
0B"
b10 E"
0+"
12
01
#146751
1B"
#150000
0B"
b10 E"
1+"
02
11
#150501
1B"
#153750
0B"
b10 E"
0+"
12
01
#154251
1B"
#157500
0B"
b10 E"
1+"
02
11
#158001
1B"
#161250
0B"
b10 E"
0+"
12
01
#161751
1B"
#165000
0B"
b10 E"
1+"
02
11
#165501
1B"
#168750
0B"
b10 E"
0+"
12
01
#169251
1B"
#172500
0B"
b10 E"
1+"
02
11
#173001
1B"
#176250
0B"
b10 E"
0+"
12
01
#176751
1B"
#180000
0B"
b10 E"
1+"
02
11
#180501
1B"
#183750
0B"
b10 E"
0+"
12
01
#184251
1B"
#187500
0B"
b10 E"
1+"
02
11
#188001
1B"
#191250
0B"
b10 E"
0+"
12
01
#191751
1B"
#195000
0B"
b10 E"
1+"
02
11
#195501
1B"
#198750
0B"
b10 E"
0+"
12
01
#199251
1B"
#202500
0B"
b10 E"
1+"
02
11
#203001
1B"
#206250
0B"
b10 E"
0+"
12
01
#206751
1B"
#210000
0B"
b10 E"
1+"
02
11
#210501
1B"
#213750
0B"
b10 E"
0+"
12
01
#214251
1B"
#217500
0B"
b10 E"
1+"
02
11
#218001
1B"
#221250
0B"
b10 E"
0+"
12
01
#221751
1B"
#225000
0B"
b10 E"
1+"
02
11
#225501
1B"
#228750
0B"
b10 E"
0+"
12
01
#229251
1B"
#232500
0B"
b10 E"
1+"
02
11
#233001
1B"
#236250
0B"
b10 E"
0+"
12
01
#236751
1B"
#240000
0B"
b10 E"
1+"
02
11
#240501
1B"
#243750
0B"
b10 E"
0+"
12
01
#244251
1B"
#247500
0B"
b10 E"
1+"
02
11
#248001
1B"
#251250
0B"
b10 E"
0+"
12
01
#251751
1B"
#255000
0B"
b10 E"
1+"
02
11
#255501
1B"
#258750
0B"
b10 E"
0+"
12
01
#259251
1B"
#262500
0B"
b10 E"
1+"
02
11
#263001
1B"
#266250
0B"
b10 E"
0+"
12
01
#266751
1B"
#270000
0B"
b10 E"
1+"
02
11
#270501
1B"
#273750
0B"
b10 E"
0+"
12
01
#274251
1B"
#277500
0B"
b10 E"
1+"
02
11
#278001
1B"
#281250
0B"
b10 E"
0+"
12
01
#281751
1B"
#285000
0B"
b10 E"
1+"
02
11
#285501
1B"
#288750
0B"
b10 E"
0+"
12
01
#289251
1B"
#292500
0B"
b10 E"
1+"
02
11
#293001
1B"
#296250
0B"
b10 E"
0+"
12
01
#296751
1B"
#300000
0B"
b10 E"
1+"
02
11
#300501
1B"
#303750
0B"
b10 E"
0+"
12
01
#304251
1B"
#307500
0B"
b10 E"
1+"
02
11
#308001
1B"
#311250
0B"
b10 E"
0+"
12
01
#311751
1B"
#315000
0B"
b10 E"
1+"
02
11
#315501
1B"
#318750
0B"
b10 E"
0+"
12
01
#319251
1B"
#322500
0B"
b10 E"
1+"
02
11
#323001
1B"
#326250
0B"
b10 E"
0+"
12
01
#326751
1B"
#330000
0B"
b10 E"
1+"
02
11
#330501
1B"
#333750
0B"
b10 E"
0+"
12
01
#334251
1B"
#337500
0B"
b10 E"
1+"
02
11
#338001
1B"
#341250
0B"
b10 E"
0+"
12
01
#341751
1B"
#345000
0B"
b10 E"
1+"
02
11
#345501
1B"
#348750
0B"
b10 E"
0+"
12
01
#349251
1B"
#352500
0B"
b10 E"
1+"
02
11
#353001
1B"
#356250
0B"
b10 E"
0+"
12
01
#356751
1B"
#360000
0B"
b10 E"
1+"
02
11
#360501
1B"
#363750
0B"
b10 E"
0+"
12
01
#364251
1B"
#367500
0B"
b10 E"
1+"
02
11
#368001
1B"
#371250
0B"
b10 E"
0+"
12
01
#371751
1B"
#375000
0B"
b10 E"
1+"
02
11
#375501
1B"
#378750
0B"
b10 E"
0+"
12
01
#379251
1B"
#382500
0B"
b10 E"
1+"
02
11
#383001
1B"
#386250
0B"
b10 E"
0+"
12
01
#386751
1B"
#390000
0B"
b10 E"
1+"
02
11
#390501
1B"
#393750
0B"
b10 E"
0+"
12
01
#394251
1B"
#397500
0B"
b10 E"
1+"
02
11
#398001
1B"
#401250
0B"
b10 E"
0+"
12
01
#401751
1B"
#405000
0B"
b10 E"
1+"
02
11
#405501
1B"
#408750
0B"
b10 E"
0+"
12
01
#409251
1B"
#412500
0B"
b10 E"
1+"
02
11
#413001
1B"
#416250
0B"
b10 E"
0+"
12
01
#416751
1B"
#420000
0B"
b10 E"
1+"
02
11
#420501
1B"
#423750
0B"
b10 E"
0+"
12
01
#424251
1B"
#427500
0B"
b10 E"
1+"
02
11
#428001
1B"
#431250
0B"
b10 E"
0+"
12
01
#431751
1B"
#435000
0B"
b10 E"
1+"
02
11
#435501
1B"
#438750
0B"
b10 E"
0+"
12
01
#439251
1B"
#442500
0B"
b10 E"
1+"
02
11
#443001
1B"
#446250
0B"
b10 E"
0+"
12
01
#446751
1B"
#450000
0B"
b10 E"
1+"
02
11
#450501
1B"
#453750
0B"
b10 E"
0+"
12
01
#454251
1B"
#457500
0B"
b10 E"
1+"
02
11
#458001
1B"
#461250
0B"
b10 E"
0+"
12
01
#461751
1B"
#465000
0B"
b10 E"
1+"
02
11
#465501
1B"
#468750
0B"
b10 E"
0+"
12
01
#469251
1B"
#472500
0B"
b10 E"
1+"
02
11
#473001
1B"
#476250
0B"
b10 E"
0+"
12
01
#476751
1B"
#480000
0B"
b10 E"
1+"
02
11
#480501
1B"
#483750
0B"
1L
0C
b10 E"
b10000000000 -
b10000000000 @
b0 .
b0 B
05
04
1N"
b0 O"
0+"
12
01
#484251
1B"
#487500
0B"
b1 p
b111101000 ("
1o
0U
b111101000 '"
1n
0T
b111101000 &"
1m
0S
b111101000 %"
1l
0R
b10 E"
1+"
02
11
#488001
1B"
#491250
0B"
0L
0?
b10 E"
15
14
b10 L"
0+"
12
01
#491751
1B"
#495000
0B"
b10 E"
1+"
02
11
#495501
1B"
#498750
0B"
b10 E"
0+"
12
01
#499251
1B"
#502500
0B"
b10 E"
1+"
02
11
#503001
1B"
#506250
0B"
1J
b10 E"
b0 -
b0 @
b1 .
b1 B
05
0/
04
b0 =
b0 J"
b1 K"
0+"
12
01
#506751
1B"
#510000
0B"
b111111110 j
1b
b10 E"
1+"
02
11
#510501
1B"
#513750
0B"
0J
0?
0L
0A
b10 E"
15
1/
14
b1111 L"
0+"
12
01
#514251
1B"
#517500
0B"
b10 E"
1+"
02
11
#518001
1B"
#521250
0B"
b10 E"
0+"
12
01
#521751
1B"
#525000
0B"
b10 E"
1+"
02
11
#525501
1B"
#528750
0B"
b10 E"
0+"
12
01
#529251
1B"
#532500
0B"
b10 E"
1+"
02
11
#533001
1B"
#536250
0B"
b10 E"
0+"
12
01
#536751
1B"
#540000
0B"
b10 E"
1+"
02
11
#540501
1B"
#543750
0B"
b10 E"
0+"
12
01
#544251
1B"
#547500
0B"
b10 E"
1+"
02
11
#548001
1B"
#551250
0B"
b10 E"
0+"
12
01
#551751
1B"
#555000
0B"
b10 E"
1+"
02
11
#555501
1B"
#558750
0B"
b10 E"
0+"
12
01
#559251
1B"
#562500
0B"
b10 E"
1+"
02
11
#563001
1B"
#566250
0B"
b10 E"
0+"
12
01
#566751
1B"
#570000
0B"
b10 E"
1+"
02
11
#570501
1B"
#573750
0B"
b10 E"
0+"
12
01
#574251
1B"
#577500
0B"
b10 E"
1+"
02
11
#578001
1B"
#581250
0B"
b10 E"
0+"
12
01
#581751
1B"
#585000
0B"
b10 E"
1+"
02
11
#585501
1B"
#588750
0B"
b10 E"
0+"
12
01
#589251
1B"
#592500
0B"
b10 E"
1+"
02
11
#593001
1B"
#596250
0B"
b10 E"
0+"
12
01
#596751
1B"
#600000
0B"
b10 E"
1+"
02
11
#600501
1B"
#603750
0B"
b10 E"
0+"
12
01
#604251
1B"
#607500
0B"
b10 E"
1+"
02
11
#608001
1B"
#611250
0B"
b10 E"
0+"
12
01
#611751
1B"
#615000
0B"
b10 E"
1+"
02
11
#615501
1B"
#618750
0B"
b10 E"
0+"
12
01
#619251
1B"
#622500
0B"
b10 E"
1+"
02
11
#623001
1B"
#626250
0B"
1K
b10 #
b10 '
b10 E"
b100100010 -
b100100010 @
b0 .
b0 B
05
0/
04
0"
b100 !
b100100010 >
b100100010 J"
b0 K"
0+"
12
01
#626751
1B"
#630000
0B"
b100 P
b1001110110 j
1c
b100 O
b100100010 k
b10 E"
1+"
02
11
#630501
1B"
#633750
0B"
0K
0?
0L
0A
b10 E"
15
1/
14
0+"
12
01
#634251
1B"
#637500
0B"
b1 `
b10 E"
1+"
02
11
#638001
1B"
#641250
0B"
b10 E"
0+"
12
01
#641751
1B"
#645000
0B"
b10 `
b10 E"
1+"
02
11
#645501
1B"
#648750
0B"
b10 E"
0+"
12
01
#649251
1B"
#652500
0B"
b11 `
b10 E"
1+"
02
11
#653001
1B"
#656250
0B"
b10 E"
0+"
12
01
#656751
1B"
#660000
0B"
b100 `
b10 E"
1+"
02
11
#660501
1B"
#663750
0B"
b10 E"
0+"
12
01
#664251
1B"
#667500
0B"
b101 `
b10 E"
1+"
02
11
#668001
1B"
#671250
0B"
b10 E"
0+"
12
01
#671751
1B"
#675000
0B"
b110 `
b10 E"
1+"
02
11
#675501
1B"
#678750
0B"
b10 E"
0+"
12
01
#679251
1B"
#682500
0B"
b111 `
b10 E"
1+"
02
11
#683001
1B"
#686250
0B"
b10 E"
0+"
12
01
#686751
1B"
#690000
0B"
b1000 `
b10 E"
1+"
02
11
#690501
1B"
#693750
0B"
b10 E"
0+"
12
01
#694251
1B"
#697500
0B"
b1001 `
b10 E"
1+"
02
11
#698001
1B"
#701250
0B"
b10 E"
0+"
12
01
#701751
1B"
#705000
0B"
b1010 `
b10 E"
1+"
02
11
#705501
1B"
#708750
0B"
b10 E"
0+"
12
01
#709251
1B"
#712500
0B"
b1011 `
b10 E"
1+"
02
11
#713001
1B"
#716250
0B"
b10 E"
0+"
12
01
#716751
1B"
#720000
0B"
b1100 `
b10 E"
1+"
02
11
#720501
1B"
#723750
0B"
b10 E"
0+"
12
01
#724251
1B"
#727500
0B"
b1101 `
b10 E"
1+"
02
11
#728001
1B"
#731250
0B"
b10 E"
0+"
12
01
#731751
1B"
#735000
0B"
b1110 `
b10 E"
1+"
02
11
#735501
1B"
#738750
0B"
b10 E"
0+"
12
01
#739251
1B"
#742500
0B"
b1111 `
b10 E"
1+"
02
11
#743001
1B"
#746250
0B"
1L
0C
b10 E"
b10000000000 -
b10000000000 @
05
04
0+"
12
01
#746751
1B"
#750000
0B"
b10 p
b10000 `
b10 E"
1+"
02
11
#750501
1B"
#753750
0B"
0L
0?
b10 E"
15
14
b10 L"
0+"
12
01
#754251
1B"
#757500
0B"
b10001 `
b10 E"
1+"
02
11
#758001
1B"
#761250
0B"
b10 E"
0+"
12
01
#761751
1B"
#765000
0B"
b10010 `
b10 E"
1+"
02
11
#765501
1B"
#768750
0B"
1A
b10 E"
0/
04
0+"
12
01
#769251
1B"
#772500
0B"
b1100000101 $"
b1 0"
b10011 `
b10 E"
1+"
02
11
#773001
1B"
#776250
0B"
0A
0?
b10 E"
1/
14
b1010 L"
0+"
12
01
#776751
1B"
#780000
0B"
b10100 `
b10 E"
1+"
02
11
#780501
1B"
#783750
0B"
b10 E"
0+"
12
01
#784251
1B"
#787500
0B"
b10101 `
b10 E"
1+"
02
11
#788001
1B"
#791250
0B"
b10 E"
0+"
12
01
#791751
1B"
#795000
0B"
b10110 `
b10 E"
1+"
02
11
#795501
1B"
#798750
0B"
b10 E"
0+"
12
01
#799251
1B"
#802500
0B"
b10111 `
b10 E"
1+"
02
11
#803001
1B"
#806250
0B"
b10 E"
0+"
12
01
#806751
1B"
#810000
0B"
b11000 `
b10 E"
1+"
02
11
#810501
1B"
#813750
0B"
b10 E"
0+"
12
01
#814251
1B"
#817500
0B"
b11001 `
b10 E"
1+"
02
11
#818001
1B"
#821250
0B"
b10 E"
0+"
12
01
#821751
1B"
#825000
0B"
b11010 `
b10 E"
1+"
02
11
#825501
1B"
#828750
0B"
b10 E"
0+"
12
01
#829251
1B"
#832500
0B"
b11011 `
b10 E"
1+"
02
11
#833001
1B"
#836250
0B"
b10 E"
0+"
12
01
#836751
1B"
#840000
0B"
b11100 `
b10 E"
1+"
02
11
#840501
1B"
#843750
0B"
b10 E"
0+"
12
01
#844251
1B"
#847500
0B"
b11101 `
b10 E"
1+"
02
11
#848001
1B"
#851250
0B"
1A
b10 E"
0/
04
0+"
12
01
#851751
1B"
#855000
0B"
1:"
b1101010111 $"
b10 0"
b11110 `
b10 E"
1+"
02
11
#855501
1B"
#858750
0B"
0A
0?
b10 E"
1/
14
0+"
12
01
#859251
1B"
#862500
0B"
b11111 `
b10 E"
1+"
02
11
#863001
1B"
#866250
0B"
b10 E"
0+"
12
01
#866751
1B"
#870000
0B"
b100000 `
b10 E"
1+"
02
11
#870501
1B"
#873750
0B"
b10 E"
0+"
12
01
#874251
1B"
#877500
0B"
b100001 `
b10 E"
1+"
02
11
#878001
1B"
#881250
0B"
b10 E"
0+"
12
01
#881751
1B"
#885000
0B"
b100010 `
b10 E"
1+"
02
11
#885501
1B"
#888750
0B"
b10 E"
0+"
12
01
#889251
1B"
#892500
0B"
b100011 `
b10 E"
1+"
02
11
#893001
1B"
#896250
0B"
b10 E"
0+"
12
01
#896751
1B"
#900000
0B"
b100100 `
b10 E"
1+"
02
11
#900501
1B"
#903750
0B"
b10 E"
0+"
12
01
#904251
1B"
#907500
0B"
b100101 `
b10 E"
1+"
02
11
#908001
1B"
#911250
0B"
b10 E"
0+"
12
01
#911751
1B"
#915000
0B"
b100110 `
b10 E"
1+"
02
11
#915501
1B"
#918750
0B"
b10 E"
0+"
12
01
#919251
1B"
#922500
0B"
b100111 `
b10 E"
1+"
02
11
#923001
1B"
#926250
0B"
b10 E"
0+"
12
01
#926751
1B"
#930000
0B"
b101000 `
b10 E"
1+"
02
11
#930501
1B"
#933750
0B"
1K
b10 E"
b100010 -
b100010 @
05
0/
04
b100010 >
b100010 J"
0+"
12
01
#934251
1B"
#937500
0B"
b1110101010 j
b100010 k
b101001 `
b10 E"
1+"
02
11
#938001
1B"
#941250
0B"
0K
0?
0L
0A
b10 E"
15
1/
14
b1111 L"
0+"
12
01
#941751
1B"
#945000
0B"
b101010 `
b10 E"
1+"
02
11
#945501
1B"
#948750
0B"
b10 E"
0+"
12
01
#949251
1B"
#952500
0B"
b101011 `
b10 E"
1+"
02
11
#953001
1B"
#956250
0B"
b10 E"
0+"
12
01
#956751
1B"
#960000
0B"
b101100 `
b10 E"
1+"
02
11
#960501
1B"
#963750
0B"
b10 E"
0+"
12
01
#964251
1B"
#967500
0B"
b101101 `
b10 E"
1+"
02
11
#968001
1B"
#971250
0B"
b10 E"
0+"
12
01
#971751
1B"
#975000
0B"
b101110 `
b10 E"
1+"
02
11
#975501
1B"
#978750
0B"
b10 E"
0+"
12
01
#979251
1B"
#982500
0B"
b101111 `
b10 E"
1+"
02
11
#983001
1B"
#986250
0B"
b10 E"
0+"
12
01
#986751
1B"
#990000
0B"
b110000 `
b10 E"
1+"
02
11
#990501
1B"
#993750
0B"
b10 E"
0+"
12
01
#994251
1B"
#997500
0B"
b110001 `
b10 E"
1+"
02
11
#998001
1B"
#1001250
0B"
b10 E"
0+"
12
01
#1001751
1B"
#1005000
0B"
b110010 `
b10 E"
1+"
02
11
#1005501
1B"
#1008750
0B"
b10 E"
0+"
12
01
#1009251
1B"
#1012500
0B"
b110011 `
b10 E"
1+"
02
11
#1013001
1B"
#1016250
0B"
b10 E"
0+"
12
01
#1016751
1B"
#1020000
0B"
b110100 `
b10 E"
1+"
02
11
#1020501
1B"
#1023750
0B"
b10 E"
0+"
12
01
#1024251
1B"
#1027500
0B"
b110101 `
b10 E"
1+"
02
11
#1028001
1B"
#1031250
0B"
b10 E"
0+"
12
01
#1031751
1B"
#1035000
0B"
b110110 `
b10 E"
1+"
02
11
#1035501
1B"
#1038750
0B"
b10 E"
0+"
12
01
#1039251
1B"
#1042500
0B"
b110111 `
b10 E"
1+"
02
11
#1043001
1B"
#1046250
0B"
b10 E"
0+"
12
01
#1046751
1B"
#1050000
0B"
b111000 `
b10 E"
1+"
02
11
#1050501
1B"
#1053750
0B"
b10 E"
b11001000 L"
0+"
12
01
#1054251
1B"
#1057500
0B"
b111001 `
b10 E"
1+"
02
11
#1058001
1B"
#1061250
0B"
b10 E"
0+"
12
01
#1061751
1B"
#1065000
0B"
b111010 `
b10 E"
1+"
02
11
#1065501
1B"
#1068750
0B"
b10 E"
0+"
12
01
#1069251
1B"
#1072500
0B"
b111011 `
b10 E"
1+"
02
11
#1073001
1B"
#1076250
0B"
b10 E"
0+"
12
01
#1076751
1B"
#1080000
0B"
b111100 `
b10 E"
1+"
02
11
#1080501
1B"
#1083750
0B"
b10 E"
0+"
12
01
#1084251
1B"
#1087500
0B"
b111101 `
b10 E"
1+"
02
11
#1088001
1B"
#1091250
0B"
b10 E"
0+"
12
01
#1091751
1B"
#1095000
0B"
b111110 `
b10 E"
1+"
02
11
#1095501
1B"
#1098750
0B"
b10 E"
0+"
12
01
#1099251
1B"
#1102500
0B"
b111111 `
b10 E"
1+"
02
11
#1103001
1B"
#1106250
0B"
b10 E"
0+"
12
01
#1106751
1B"
#1110000
0B"
b1000000 `
b10 E"
1+"
02
11
#1110501
1B"
#1113750
0B"
b10 E"
0+"
12
01
#1114251
1B"
#1117500
0B"
b1000001 `
b10 E"
1+"
02
11
#1118001
1B"
#1121250
0B"
b10 E"
0+"
12
01
#1121751
1B"
#1125000
0B"
b1000010 `
b10 E"
1+"
02
11
#1125501
1B"
#1128750
0B"
b10 E"
0+"
12
01
#1129251
1B"
#1132500
0B"
b1000011 `
b10 E"
1+"
02
11
#1133001
1B"
#1136250
0B"
b10 E"
0+"
12
01
#1136751
1B"
#1140000
0B"
b1000100 `
b10 E"
1+"
02
11
#1140501
1B"
#1143750
0B"
b10 E"
0+"
12
01
#1144251
1B"
#1147500
0B"
b1000101 `
b10 E"
1+"
02
11
#1148001
1B"
#1151250
0B"
b10 E"
0+"
12
01
#1151751
1B"
#1155000
0B"
b1000110 `
b10 E"
1+"
02
11
